{
    "count": 82,
    "next": "http://swapi.dev/api/people/?page=3",
    "previous": "http://swapi.dev/api/people/?page=1",
    "results": [
        {
            "name": "Anakin Skywalker",
            "height": "188",
            "mass": "84",
            "hair_color": "blond",
            "skin_color": "fair",
            "eye_color": "blue",
            "birth_year": "41.9BBY",
            "gender": "male",
            "films": [
                "http://swapi.dev/api/films/4/",
                "http://swapi.dev/api/films/5/",
                "http://swapi.dev/api/films/6/"
            ]
        },
        {
            "name": "Wilhuff Tarkin",
            "height": "180",
            "mass": "unknown",
            "hair_color": "auburn, grey",
            "skin_color": "fair",
            "eye_color": "blue",
            "birth_year": "64BBY",
            "gender": "male",
            "films": [
                "http://swapi.dev/api/films/1/",
                "http://swapi.dev/api/films/6/"
            ]
        },
        {
            "name": "Chewbacca",
            "height": "228",
            "mass": "112",
            "hair_color": "brown",
            "skin_color": "unknown",
            "eye_color": "blue",
            "birth_year": "200BBY",
            "gender": "male",
            "films": [
                "http://swapi.dev/api/films/1/",
                "http://swapi.dev/api/films/2/",
                "http://swapi.dev/api/films/3/",
                "http://swapi.dev/api/films/6/"
            ]
        },
        {
            "name": "Han Solo",
            "height": "180",
            "mass": "80",
            "hair_color": "brown",
            "skin_color": "fair",
            "eye_color": "brown",
            "birth_year": "29BBY",
            "gender": "male",
            "films": [
                "http://swapi.dev/api/films/1/",
                "http://swapi.dev/api/films/2/",
                "http://swapi.dev/api/films/3/"
            ]
        },
        {
            "name": "Greedo",
            "height": "173",
            "mass": "74",
            "hair_color": "n/a",
            "skin_color": "green",
            "eye_color": "black",
            "birth_year": "44BBY",
            "gender": "male",
            "films": [
                "http://swapi.dev/api/films/1/"
            ]
        },
        {
            "name": "Jabba Desilijic Tiure",
            "height": "175",
            "mass": "1,358",
            "hair_color": "n/a",
            "skin_color": "green-tan, brown",
            "eye_color": "orange",
            "birth_year": "600BBY",
            "gender": "hermaphrodite",
            "films": [
                "http://swapi.dev/api/films/1/",
                "http://swapi.dev/api/films/3/",
                "http://swapi.dev/api/films/4/"
            ]
        },
        {
            "name": "Wedge Antilles",
            "height": "170",
            "mass": "77",
            "hair_color": "brown",
            "skin_color": "fair",
            "eye_color": "hazel",
            "birth_year": "21BBY",
            "gender": "male",
            "films": [
                "http://swapi.dev/api/films/1/",
                "http://swapi.dev/api/films/2/",
                "http://swapi.dev/api/films/3/"
            ]
        },
        {
            "name": "Jek Tono Porkins",
            "height": "180",
            "mass": "110",
            "hair_color": "brown",
            "skin_color": "fair",
            "eye_color": "blue",
            "birth_year": "unknown",
            "gender": "male",
            "films": [
                "http://swapi.dev/api/films/1/"
            ]
        },
        {
            "name": "Yoda",
            "height": "66",
            "mass": "17",
            "hair_color": "white",
            "skin_color": "green",
            "eye_color": "brown",
            "birth_year": "896BBY",
            "gender": "male",
            "films": [
                "http://swapi.dev/api/films/2/",
                "http://swapi.dev/api/films/3/",
                "http://swapi.dev/api/films/4/",
                "http://swapi.dev/api/films/5/",
                "http://swapi.dev/api/films/6/"
            ]
        },
        {
            "name": "Palpatine",
            "height": "170",
            "mass": "75",
            "hair_color": "grey",
            "skin_color": "pale",
            "eye_color": "yellow",
            "birth_year": "82BBY",
            "gender": "male",
            "films": [
                "http://swapi.dev/api/films/2/",
                "http://swapi.dev/api/films/3/",
                "http://swapi.dev/api/films/4/",
                "http://swapi.dev/api/films/5/",
                "http://swapi.dev/api/films/6/"
            ]
        }
    ]
}
